[38;2;0;0;0m [38;2;0;0;0m [38;2;0;0;0m [38;2;0;0;0m [38;2;0;0;0m [38;2;0;0;0m [38;2;0;0;0m [38;2;0;0;0m [38;2;0;0;0m [38;2;0;0;0m [38;2;0;0;0m [38;2;0;0;0m [38;2;0;0;0m [38;2;0;0;0m [38;2;0;0;0m [38;2;0;1;0m [38;2;0;0;0m [38;2;0;0;0m [38;2;0;0;0m [38;2;0;3;1m [38;2;4;24;7m.[38;2;8;50;13m:[38;2;8;52;14m:[38;2;6;41;11m.[38;2;12;75;20m;[38;2;12;75;20m;[38;2;11;69;19m:[38;2;9;56;15m:[38;2;6;38;10m.[38;2;2;13;4m [38;2;0;0;0m [38;2;0;0;0m [38;2;0;0;0m [38;2;0;0;0m [38;2;0;0;0m [38;2;0;0;0m [38;2;0;0;0m [38;2;0;0;0m [38;2;0;0;0m [38;2;0;0;0m [38;2;0;0;0m [38;2;0;0;0m [38;2;0;0;0m [38;2;0;0;0m [38;2;0;0;0m [38;2;0;0;0m [38;2;0;0;0m [38;2;0;0;0m [38;2;0;0;0m [38;2;0;0;0m [0m
[38;2;0;0;0m [38;2;0;0;0m [38;2;0;0;0m [38;2;0;0;0m [38;2;0;0;0m [38;2;0;0;0m [38;2;0;0;0m [38;2;0;0;0m [38;2;0;0;0m [38;2;0;0;0m [38;2;0;0;0m [38;2;0;0;0m [38;2;0;1;0m [38;2;0;4;0m [38;2;0;1;0m [38;2;3;17;5m [38;2;2;13;3m [38;2;11;68;19m:[38;2;25;157;43mx[38;2;30;188;51m$[38;2;31;194;53m$[38;2;31;194;53m$[38;2;17;109;29m+[38;2;21;133;36m=[38;2;31;194;53m$[38;2;31;194;53m$[38;2;31;194;53m$[38;2;31;194;53m$[38;2;24;153;42mx[38;2;13;86;23m;[38;2;17;106;29m+[38;2;5;34;9m.[38;2;12;76;20m;[38;2;0;2;1m [38;2;0;0;0m [38;2;0;0;0m [38;2;0;0;0m [38;2;0;0;0m [38;2;0;0;0m [38;2;0;0;0m [38;2;0;0;0m [38;2;0;0;0m [38;2;0;0;0m [38;2;0;0;0m [38;2;0;0;0m [38;2;0;0;0m [38;2;0;0;0m [38;2;0;0;0m [38;2;0;0;0m [38;2;0;0;0m [0m
[38;2;0;0;0m [38;2;0;0;0m [38;2;0;0;0m [38;2;0;0;0m [38;2;0;0;0m [38;2;0;0;0m [38;2;0;0;0m [38;2;0;1;0m [38;2;0;0;0m [38;2;0;0;0m [38;2;0;0;0m [38;2;0;0;0m [38;2;2;14;3m [38;2;13;82;22m;[38;2;24;150;41mx[38;2;21;135;37m=[38;2;18;115;31m+[38;2;10;62;17m:[38;2;31;193;53m$[38;2;31;194;53m$[38;2;31;194;53m$[38;2;31;193;53m$[38;2;10;64;17m:[38;2;30;189;51m$[38;2;31;194;53m$[38;2;31;194;53m$[38;2;27;169;46mX[38;2;13;85;23m;[38;2;19;119;32m=[38;2;30;190;52m$[38;2;26;166;45mX[38;2;13;85;23m;[38;2;31;194;53m$[38;2;25;156;42mx[38;2;7;45;12m.[38;2;9;56;15m:[38;2;6;37;10m.[38;2;0;0;0m [38;2;0;0;0m [38;2;0;0;0m [38;2;0;0;0m [38;2;0;0;0m [38;2;0;0;0m [38;2;0;0;0m [38;2;0;0;0m [38;2;0;0;0m [38;2;0;0;0m [38;2;0;0;0m [38;2;0;0;0m [38;2;0;0;0m [0m
[38;2;0;0;0m [38;2;0;0;0m [38;2;0;1;0m [38;2;0;0;0m [38;2;0;0;0m [38;2;0;0;0m [38;2;0;0;0m [38;2;0;0;0m [38;2;0;0;0m [38;2;0;0;0m [38;2;4;24;6m.[38;2;18;114;31m+[38;2;30;186;51m$[38;2;31;194;53m$[38;2;31;194;53m$[38;2;11;70;19m;[38;2;29;183;50mX[38;2;21;136;37m=[38;2;14;91;25m;[38;2;30;191;52m$[38;2;31;194;53m$[38;2;18;113;31m+[38;2;11;68;19m:[38;2;31;193;53m$[38;2;29;185;51m$[38;2;15;99;27m+[38;2;16;100;27m+[38;2;29;183;50mX[38;2;31;194;53m$[38;2;31;194;53m$[38;2;15;96;26m+[38;2;24;154;42mx[38;2;31;194;53m$[38;2;31;194;53m$[38;2;30;191;52m$[38;2;17;107;29m+[38;2;15;96;26m+[38;2;16;102;28m+[38;2;7;46;12m.[38;2;1;9;2m [38;2;0;0;0m [38;2;0;0;0m [38;2;0;0;0m [38;2;0;0;0m [38;2;0;0;0m [38;2;0;0;0m [38;2;0;0;0m [38;2;0;0;0m [38;2;0;0;0m [38;2;0;0;0m [0m
[38;2;0;0;0m [38;2;0;0;0m [38;2;0;0;0m [38;2;0;0;0m [38;2;0;0;0m [38;2;0;1;0m [38;2;0;0;0m [38;2;0;0;0m [38;2;0;1;0m [38;2;14;87;24m;[38;2;30;188;51m$[38;2;31;194;53m$[38;2;31;194;53m$[38;2;31;194;53m$[38;2;24;155;42mx[38;2;15;92;25m;[38;2;31;194;53m$[38;2;31;194;53m$[38;2;24;154;42mx[38;2;12;75;20m;[38;2;24;154;42mx[38;2;13;80;22m;[38;2;12;77;21m;[38;2;20;125;34m=[38;2;12;78;21m;[38;2;27;167;46mX[38;2;31;194;53m$[38;2;31;194;53m$[38;2;31;194;53m$[38;2;30;188;51m$[38;2;10;61;16m:[38;2;31;193;53m$[38;2;31;194;53m$[38;2;31;194;53m$[38;2;31;194;53m$[38;2;31;194;53m$[38;2;25;158;43mx[38;2;9;55;15m:[38;2;15;92;25m;[38;2;28;178;48mX[38;2;12;80;22m;[38;2;0;0;0m [38;2;0;0;0m [38;2;0;0;0m [38;2;0;0;0m [38;2;0;0;0m [38;2;0;0;0m [38;2;0;0;0m [38;2;0;0;0m [38;2;0;0;0m [0m
[38;2;0;0;0m [38;2;0;0;0m [38;2;0;0;0m [38;2;0;0;0m [38;2;0;1;0m [38;2;0;1;0m [38;2;0;2;0m [38;2;8;50;13m:[38;2;13;80;22m;[38;2;20;125;34m=[38;2;31;194;53m$[38;2;31;194;53m$[38;2;31;194;53m$[38;2;30;187;51m$[38;2;10;63;17m:[38;2;29;185;50m$[38;2;31;194;53m$[38;2;31;194;53m$[38;2;31;194;53m$[38;2;24;153;42mx[38;2;5;33;9m.[38;2;29;183;50mX[38;2;27;172;47mX[38;2;8;54;15m:[38;2;31;193;53m$[38;2;31;194;53m$[38;2;31;194;53m$[38;2;31;194;53m$[38;2;31;194;53m$[38;2;18;115;31m+[38;2;21;132;36m=[38;2;31;194;53m$[38;2;31;194;53m$[38;2;31;194;53m$[38;2;24;154;42mx[38;2;15;96;26m+[38;2;19;122;33m=[38;2;29;186;51m$[38;2;14;89;24m;[38;2;19;120;33m=[38;2;11;72;20m;[38;2;19;120;32m=[38;2;2;12;3m [38;2;0;0;0m [38;2;0;0;0m [38;2;0;0;0m [38;2;0;0;0m [38;2;0;0;0m [38;2;0;0;0m [38;2;0;0;0m [0m
[38;2;0;0;0m [38;2;0;0;0m [38;2;0;0;0m [38;2;0;0;0m [38;2;0;1;0m [38;2;0;1;0m [38;2;14;90;24m;[38;2;30;191;52m$[38;2;28;179;49mX[38;2;5;33;9m.[38;2;26;164;45mX[38;2;31;194;53m$[38;2;31;194;53m$[38;2;15;94;25m+[38;2;24;152;41mx[38;2;31;194;53m$[38;2;31;194;53m$[38;2;31;194;53m$[38;2;31;194;53m$[38;2;14;88;24m;[38;2;24;154;42mx[38;2;31;194;53m$[38;2;31;194;53m$[38;2;19;121;33m=[38;2;19;119;32m=[38;2;31;194;53m$[38;2;31;194;53m$[38;2;31;194;53m$[38;2;30;188;51m$[38;2;9;60;16m:[38;2;31;192;52m$[38;2;31;194;53m$[38;2;31;194;53m$[38;2;31;194;53m$[38;2;28;175;48mX[38;2;28;178;49mX[38;2;20;131;35m=[38;2;27;169;46mX[38;2;31;194;53m$[38;2;19;122;33m=[38;2;10;66;18m:[38;2;30;191;52m$[38;2;26;167;45mX[38;2;5;33;9m.[38;2;0;0;0m [38;2;0;0;0m [38;2;0;0;0m [38;2;0;0;0m [38;2;0;0;0m [38;2;0;0;0m [0m
[38;2;0;0;0m [38;2;0;0;0m [38;2;0;0;0m [38;2;0;0;0m [38;2;0;1;0m [38;2;18;113;31m+[38;2;31;194;53m$[38;2;31;194;53m$[38;2;31;194;53m$[38;2;12;76;20m;[38;2;11;68;18m:[38;2;18;114;31m+[38;2;28;180;49mX[38;2;11;72;20m;[38;2;31;193;53m$[38;2;31;194;53m$[38;2;31;194;53m$[38;2;31;194;53m$[38;2;24;153;42mx[38;2;15;93;25m+[38;2;31;194;53m$[38;2;31;194;53m$[38;2;31;194;53m$[38;2;31;193;53m$[38;2;11;72;19m;[38;2;27;169;46mX[38;2;31;194;53m$[38;2;31;194;53m$[38;2;16;102;28m+[38;2;22;142;39mx[38;2;31;194;53m$[38;2;31;194;53m$[38;2;31;194;53m$[38;2;31;194;53m$[38;2;31;194;53m$[38;2;31;194;53m$[38;2;26;164;45mX[38;2;31;194;53m$[38;2;31;194;53m$[38;2;31;194;53m$[38;2;24;153;41mx[38;2;11;73;20m;[38;2;22;140;38mx[38;2;21;135;37m=[38;2;4;24;6m.[38;2;0;0;0m [38;2;0;0;0m [38;2;0;0;0m [38;2;0;0;0m [38;2;0;0;0m [0m
[38;2;0;0;0m [38;2;0;0;0m [38;2;0;0;0m [38;2;0;0;0m [38;2;4;28;8m.[38;2;12;76;21m;[38;2;26;162;44mX[38;2;31;194;53m$[38;2;31;194;53m$[38;2;27;170;46mX[38;2;12;76;21m;[38;2;24;150;41mx[38;2;10;63;17m:[38;2;16;99;27m+[38;2;31;194;53m$[38;2;31;194;53m$[38;2;31;194;53m$[38;2;31;194;53m$[38;2;11;69;19m:[38;2;29;183;50mX[38;2;31;194;53m$[38;2;31;194;53m$[38;2;31;194;53m$[38;2;31;194;53m$[38;2;28;176;48mX[38;2;11;68;18m:[38;2;31;194;53m$[38;2;26;165;45mX[38;2;12;76;20m;[38;2;31;194;53m$[38;2;31;194;53m$[38;2;31;194;53m$[38;2;31;194;53m$[38;2;31;194;53m$[38;2;31;194;53m$[38;2;31;194;53m$[38;2;31;194;53m$[38;2;31;194;53m$[38;2;31;194;53m$[38;2;31;194;53m$[38;2;31;194;53m$[38;2;25;158;43mx[38;2;8;50;13m:[38;2;18;112;30m+[38;2;8;52;14m:[38;2;6;38;10m.[38;2;0;0;0m [38;2;0;0;0m [38;2;0;0;0m [38;2;0;0;0m [0m
[38;2;0;0;0m [38;2;0;0;0m [38;2;0;0;0m [38;2;12;76;21m;[38;2;29;181;49mX[38;2;10;61;16m:[38;2;17;111;30m+[38;2;14;88;24m;[38;2;21;132;36m=[38;2;29;180;49mX[38;2;17;106;29m+[38;2;22;137;37m=[38;2;31;193;53m$[38;2;19;122;33m=[38;2;13;84;23m;[38;2;27;171;47mX[38;2;31;194;53m$[38;2;30;190;52m$[38;2;10;66;18m:[38;2;31;194;53m$[38;2;31;194;53m$[38;2;31;194;53m$[38;2;31;194;53m$[38;2;31;194;53m$[38;2;31;194;53m$[38;2;16;100;27m+[38;2;22;138;37m=[38;2;10;63;17m:[38;2;29;181;49mX[38;2;31;194;53m$[38;2;31;194;53m$[38;2;31;194;53m$[38;2;31;194;53m$[38;2;31;194;53m$[38;2;12;78;21m;[38;2;17;107;29m+[38;2;31;193;53m$[38;2;31;194;53m$[38;2;31;194;53m$[38;2;31;194;53m$[38;2;31;194;53m$[38;2;31;194;53m$[38;2;25;155;42mx[38;2;5;31;8m.[38;2;30;186;51m$[38;2;27;172;47mX[38;2;3;17;4m [38;2;0;0;0m [38;2;0;0;0m [38;2;0;0;0m [0m
[38;2;0;0;0m [38;2;0;0;0m [38;2;4;28;8m.[38;2;29;186;51m$[38;2;31;194;53m$[38;2;25;156;42mx[38;2;14;92;25m;[38;2;31;193;52m$[38;2;25;160;44mx[38;2;18;112;30m+[38;2;15;96;26m+[38;2;4;29;8m.[38;2;27;173;47mX[38;2;31;194;53m$[38;2;29;183;50mX[38;2;14;91;25m;[38;2;18;117;32m=[38;2;28;176;48mX[38;2;13;81;22m;[38;2;31;193;53m$[38;2;31;194;53m$[38;2;31;194;53m$[38;2;31;194;53m$[38;2;31;194;53m$[38;2;27;169;46mX[38;2;17;110;30m+[38;2;3;19;5m [38;2;26;165;45mX[38;2;31;194;53m$[38;2;31;194;53m$[38;2;31;194;53m$[38;2;31;194;53m$[38;2;31;194;53m$[38;2;31;194;53m$[38;2;14;89;24m;[38;2;0;0;0m [38;2;10;65;17m:[38;2;29;186;51m$[38;2;31;194;53m$[38;2;31;194;53m$[38;2;31;194;53m$[38;2;31;194;53m$[38;2;29;184;50mX[38;2;22;137;37m=[38;2;19;124;34m=[38;2;31;194;53m$[38;2;21;132;36m=[38;2;0;0;0m [38;2;0;0;0m [38;2;0;0;0m [0m
[38;2;0;0;0m [38;2;0;0;0m [38;2;21;135;37m=[38;2;31;194;53m$[38;2;31;194;53m$[38;2;31;194;53m$[38;2;11;69;19m:[38;2;29;183;50mX[38;2;31;194;53m$[38;2;31;194;53m$[38;2;31;194;53m$[38;2;28;177;48mX[38;2;10;66;18m:[38;2;29;186;51m$[38;2;31;194;53m$[38;2;31;194;53m$[38;2;21;132;36m=[38;2;12;78;21m;[38;2;12;79;21m;[38;2;31;193;53m$[38;2;31;194;53m$[38;2;30;186;51m$[38;2;18;112;31m+[38;2;5;34;9m.[38;2;0;0;0m [38;2;0;0;0m [38;2;0;0;0m [38;2;9;57;15m:[38;2;26;164;45mX[38;2;31;194;53m$[38;2;31;194;53m$[38;2;31;194;53m$[38;2;31;194;53m$[38;2;31;194;53m$[38;2;30;191;52m$[38;2;10;66;18m:[38;2;0;0;0m [38;2;6;36;9m.[38;2;27;171;46mX[38;2;31;194;53m$[38;2;31;194;53m$[38;2;31;194;53m$[38;2;11;69;19m:[38;2;9;55;15m:[38;2;21;137;37m=[38;2;25;157;43mx[38;2;31;194;53m$[38;2;9;55;15m:[38;2;0;0;0m [38;2;0;0;0m [0m
[38;2;0;0;0m [38;2;6;39;11m.[38;2;31;193;53m$[38;2;31;194;53m$[38;2;31;194;53m$[38;2;31;194;53m$[38;2;19;121;33m=[38;2;21;135;37m=[38;2;31;194;53m$[38;2;31;194;53m$[38;2;31;194;53m$[38;2;31;194;53m$[38;2;26;164;44mX[38;2;11;72;19m;[38;2;30;189;51m$[38;2;31;194;53m$[38;2;31;194;53m$[38;2;17;111;30m+[38;2;9;57;15m:[38;2;31;193;53m$[38;2;19;122;33m=[38;2;3;20;5m [38;2;0;0;0m [38;2;0;0;0m [38;2;0;0;0m [38;2;0;0;0m [38;2;0;0;0m [38;2;0;0;0m [38;2;0;1;0m [38;2;7;45;12m.[38;2;16;102;28m+[38;2;23;146;40mx[38;2;29;181;49mX[38;2;31;194;53m$[38;2;31;194;53m$[38;2;31;192;52m$[38;2;12;76;21m;[38;2;0;0;0m [38;2;2;15;4m [38;2;20;128;35m=[38;2;31;194;53m$[38;2;31;194;53m$[38;2;28;177;48mX[38;2;21;131;36m=[38;2;15;95;26m+[38;2;22;141;38mx[38;2;31;194;53m$[38;2;24;149;41mx[38;2;0;0;0m [38;2;0;0;0m [0m
[38;2;0;0;0m [38;2;6;38;10m.[38;2;14;90;24m;[38;2;16;101;27m+[38;2;16;102;27m+[38;2;18;111;30m+[38;2;16;99;27m+[38;2;15;95;26m+[38;2;27;170;46mX[38;2;30;190;52m$[38;2;31;194;53m$[38;2;31;194;53m$[38;2;31;194;53m$[38;2;25;159;43mx[38;2;12;73;20m;[38;2;30;187;51m$[38;2;31;194;53m$[38;2;28;176;48mX[38;2;6;38;10m.[38;2;9;55;15m:[38;2;0;0;0m [38;2;0;0;0m [38;2;0;0;0m [38;2;0;0;0m [38;2;0;0;0m [38;2;0;0;0m [38;2;0;0;0m [38;2;0;0;0m [38;2;0;0;0m [38;2;0;0;0m [38;2;5;31;8m.[38;2;19;121;33m=[38;2;8;49;13m:[38;2;14;90;24m;[38;2;16;100;27m+[38;2;16;100;27m+[38;2;16;99;27m+[38;2;5;30;8m.[38;2;5;30;8m.[38;2;5;34;9m.[38;2;12;77;21m;[38;2;12;76;21m;[38;2;16;103;28m+[38;2;22;137;37m=[38;2;22;140;38mx[38;2;16;103;28m+[38;2;15;98;27m+[38;2;16;101;27m+[38;2;4;23;6m [38;2;0;0;0m [0m
[38;2;0;1;0m [38;2;25;157;43mx[38;2;14;89;24m;[38;2;18;111;30m+[38;2;30;188;51m$[38;2;29;183;50mX[38;2;26;164;45mX[38;2;23;144;39mx[38;2;20;124;34m=[38;2;16;104;28m+[38;2;16;100;27m+[38;2;16;100;27m+[38;2;16;101;27m+[38;2;16;101;27m+[38;2;11;70;19m;[38;2;8;49;13m:[38;2;7;46;12m.[38;2;3;20;5m [38;2;3;18;5m [38;2;3;20;6m [38;2;4;28;8m.[38;2;7;46;12m.[38;2;11;73;20m;[38;2;16;101;27m+[38;2;0;2;0m [38;2;0;0;0m [38;2;0;0;0m [38;2;0;0;0m [38;2;0;0;0m [38;2;0;0;0m [38;2;0;0;0m [38;2;3;19;5m [38;2;9;61;16m:[38;2;31;193;53m$[38;2;31;194;53m$[38;2;31;194;53m$[38;2;31;194;53m$[38;2;31;194;53m$[38;2;31;194;53m$[38;2;31;193;53m$[38;2;12;74;20m;[38;2;15;93;25m+[38;2;14;88;24m;[38;2;15;99;27m+[38;2;23;144;39mx[38;2;30;187;51m$[38;2;31;194;53m$[38;2;31;194;53m$[38;2;15;92;25m;[38;2;0;0;0m [0m
[38;2;3;21;6m [38;2;31;193;53m$[38;2;31;194;53m$[38;2;25;160;44mx[38;2;14;87;24m;[38;2;17;110;30m+[38;2;29;182;50mX[38;2;31;194;53m$[38;2;31;194;53m$[38;2;31;194;53m$[38;2;31;194;53m$[38;2;31;194;53m$[38;2;31;194;53m$[38;2;31;194;53m$[38;2;31;194;53m$[38;2;31;194;53m$[38;2;31;194;53m$[38;2;31;194;53m$[38;2;31;194;53m$[38;2;31;194;53m$[38;2;31;194;53m$[38;2;31;194;53m$[38;2;31;194;53m$[38;2;31;193;53m$[38;2;23;144;39mx[38;2;3;21;5m [38;2;0;0;0m [38;2;0;0;0m [38;2;0;0;0m [38;2;0;0;0m [38;2;0;0;0m [38;2;0;0;0m [38;2;0;2;1m [38;2;21;130;35m=[38;2;31;194;53m$[38;2;31;194;53m$[38;2;31;194;53m$[38;2;27;169;46mX[38;2;17;109;30m+[38;2;14;92;25m;[38;2;18;111;30m+[38;2;22;141;38mx[38;2;16;104;28m+[38;2;15;92;25m;[38;2;17;111;30m+[38;2;27;171;46mX[38;2;31;194;53m$[38;2;31;194;53m$[38;2;21;134;36m=[38;2;0;0;0m [0m
[38;2;7;47;12m:[38;2;31;194;53m$[38;2;31;194;53m$[38;2;31;192;52m$[38;2;25;159;43mx[38;2;12;77;21m;[38;2;11;69;19m:[38;2;14;90;24m;[38;2;22;137;37m=[38;2;30;188;51m$[38;2;31;194;53m$[38;2;31;194;53m$[38;2;31;194;53m$[38;2;31;194;53m$[38;2;31;194;53m$[38;2;31;194;53m$[38;2;31;194;53m$[38;2;31;194;53m$[38;2;31;194;53m$[38;2;31;194;53m$[38;2;31;194;53m$[38;2;31;194;53m$[38;2;31;194;53m$[38;2;31;194;53m$[38;2;14;87;24m;[38;2;3;20;5m [38;2;0;0;0m [38;2;0;0;0m [38;2;0;0;0m [38;2;0;0;0m [38;2;0;0;0m [38;2;0;0;0m [38;2;0;0;0m [38;2;1;8;2m [38;2;21;130;35m=[38;2;16;102;28m+[38;2;15;93;25m+[38;2;19;117;32m=[38;2;28;177;48mX[38;2;31;194;53m$[38;2;31;194;53m$[38;2;31;194;53m$[38;2;31;194;53m$[38;2;31;194;53m$[38;2;28;174;48mX[38;2;18;116;32m=[38;2;15;95;26m+[38;2;14;90;24m;[38;2;13;84;23m;[38;2;0;0;0m [0m
[38;2;3;22;6m [38;2;10;65;17m:[38;2;14;88;24m;[38;2;16;100;27m+[38;2;21;131;36m=[38;2;29;180;49mX[38;2;31;194;53m$[38;2;31;192;52m$[38;2;24;150;41mx[38;2;16;100;27m+[38;2;15;96;26m+[38;2;16;101;27m+[38;2;21;131;36m=[38;2;25;160;44mx[38;2;29;180;49mX[38;2;31;192;52m$[38;2;31;194;53m$[38;2;31;194;53m$[38;2;31;194;53m$[38;2;31;194;53m$[38;2;31;194;53m$[38;2;31;194;53m$[38;2;29;183;50mX[38;2;24;154;42mx[38;2;15;93;25m+[38;2;2;13;4m [38;2;0;0;0m [38;2;0;0;0m [38;2;0;0;0m [38;2;0;0;0m [38;2;0;0;0m [38;2;0;0;0m [38;2;0;0;0m [38;2;0;0;0m [38;2;6;38;10m.[38;2;30;186;51m$[38;2;31;194;53m$[38;2;31;194;53m$[38;2;31;194;53m$[38;2;31;194;53m$[38;2;31;194;53m$[38;2;31;194;53m$[38;2;31;194;53m$[38;2;31;194;53m$[38;2;31;194;53m$[38;2;28;177;48mX[38;2;14;89;24m;[38;2;16;103;28m+[38;2;22;141;38mx[38;2;0;1;0m [0m
[38;2;7;44;12m.[38;2;24;150;41mx[38;2;16;102;28m+[38;2;14;89;24m;[38;2;21;134;37m=[38;2;30;191;52m$[38;2;31;194;53m$[38;2;31;194;53m$[38;2;31;194;53m$[38;2;31;194;53m$[38;2;31;194;53m$[38;2;30;190;52m$[38;2;22;142;39mx[38;2;6;38;10m.[38;2;16;105;28m+[38;2;11;71;19m;[38;2;7;42;11m.[38;2;5;34;9m.[38;2;6;40;11m.[38;2;6;40;11m.[38;2;5;30;8m.[38;2;2;11;3m [38;2;0;0;0m [38;2;0;0;0m [38;2;0;0;0m [38;2;0;0;0m [38;2;0;0;0m [38;2;0;0;0m [38;2;0;0;0m [38;2;0;0;0m [38;2;0;0;0m [38;2;0;0;0m [38;2;0;0;0m [38;2;0;0;0m [38;2;0;4;1m [38;2;28;176;48mX[38;2;31;194;53m$[38;2;31;194;53m$[38;2;31;194;53m$[38;2;31;194;53m$[38;2;31;194;53m$[38;2;31;194;53m$[38;2;31;194;53m$[38;2;31;194;53m$[38;2;20;124;34m=[38;2;13;85;23m;[38;2;28;178;49mX[38;2;31;194;53m$[38;2;26;162;44mX[38;2;0;1;0m [0m
[38;2;4;26;7m.[38;2;31;193;53m$[38;2;31;194;53m$[38;2;31;193;53m$[38;2;23;146;40mx[38;2;14;88;24m;[38;2;17;110;30m+[38;2;29;183;50mX[38;2;31;194;53m$[38;2;31;194;53m$[38;2;31;194;53m$[38;2;20;124;34m=[38;2;6;36;10m.[38;2;15;97;26m+[38;2;26;163;45mX[38;2;30;187;51m$[38;2;18;115;31m+[38;2;11;73;20m;[38;2;0;3;1m [38;2;0;0;0m [38;2;0;0;0m [38;2;0;0;0m [38;2;0;0;0m [38;2;0;0;0m [38;2;0;0;0m [38;2;0;0;0m [38;2;0;0;0m [38;2;0;0;0m [38;2;0;0;0m [38;2;0;0;0m [38;2;0;0;0m [38;2;0;0;0m [38;2;1;6;2m [38;2;5;34;9m.[38;2;0;1;0m [38;2;20;127;34m=[38;2;31;194;53m$[38;2;31;194;53m$[38;2;31;194;53m$[38;2;31;194;53m$[38;2;31;194;53m$[38;2;31;194;53m$[38;2;26;164;45mX[38;2;12;79;21m;[38;2;22;137;37m=[38;2;31;194;53m$[38;2;31;194;53m$[38;2;31;194;53m$[38;2;22;139;38mx[38;2;0;0;0m [0m
[38;2;0;2;0m [38;2;28;178;48mX[38;2;31;194;53m$[38;2;31;194;53m$[38;2;31;194;53m$[38;2;31;194;53m$[38;2;27;168;46mX[38;2;15;95;26m+[38;2;15;96;26m+[38;2;26;166;45mX[38;2;31;194;53m$[38;2;31;194;53m$[38;2;28;177;48mX[38;2;17;111;30m+[38;2;4;27;7m.[38;2;10;65;18m:[38;2;25;160;44mx[38;2;30;190;52m$[38;2;2;15;4m [38;2;0;0;0m [38;2;0;0;0m [38;2;0;0;0m [38;2;0;0;0m [38;2;0;0;0m [38;2;0;0;0m [38;2;0;0;0m [38;2;0;0;0m [38;2;0;0;0m [38;2;0;0;0m [38;2;0;0;0m [38;2;0;0;0m [38;2;5;33;9m.[38;2;27;169;46mX[38;2;29;181;49mX[38;2;18;118;32m=[38;2;10;66;18m:[38;2;17;105;29m+[38;2;16;102;28m+[38;2;16;103;28m+[38;2;17;110;30m+[38;2;15;96;26m+[38;2;10;63;17m:[38;2;13;81;22m;[38;2;26;163;44mX[38;2;28;175;48mX[38;2;29;180;49mX[38;2;30;187;51m$[38;2;30;192;52m$[38;2;16;100;27m+[38;2;0;0;0m [0m
[38;2;0;0;0m [38;2;19;123;33m=[38;2;31;194;53m$[38;2;31;194;53m$[38;2;31;194;53m$[38;2;31;194;53m$[38;2;31;194;53m$[38;2;28;177;48mX[38;2;21;135;37m=[38;2;6;36;10m.[38;2;6;36;10m.[38;2;14;92;25m;[38;2;18;112;30m+[38;2;25;161;44mx[38;2;12;75;20m;[38;2;26;167;45mX[38;2;31;194;53m$[38;2;28;174;47mX[38;2;13;80;22m;[38;2;21;133;36m=[38;2;5;32;9m.[38;2;0;0;0m [38;2;0;0;0m [38;2;0;0;0m [38;2;0;0;0m [38;2;0;0;0m [38;2;0;0;0m [38;2;0;0;0m [38;2;0;0;0m [38;2;0;0;0m [38;2;0;0;0m [38;2;17;111;30m+[38;2;31;194;53m$[38;2;31;194;53m$[38;2;29;183;50mX[38;2;9;56;15m:[38;2;30;189;52m$[38;2;31;194;53m$[38;2;31;194;53m$[38;2;29;183;50mX[38;2;12;78;21m;[38;2;14;87;24m;[38;2;21;131;36m=[38;2;20;126;34m=[38;2;19;119;32m=[38;2;18;114;31m+[38;2;17;108;29m+[38;2;16;102;28m+[38;2;2;16;4m [38;2;0;0;0m [0m
[38;2;0;0;0m [38;2;4;28;7m.[38;2;16;101;28m+[38;2;16;101;27m+[38;2;16;100;27m+[38;2;16;99;27m+[38;2;16;99;27m+[38;2;18;114;31m+[38;2;23;144;39mx[38;2;26;163;44mX[38;2;10;63;17m:[38;2;31;193;53m$[38;2;31;192;52m$[38;2;13;84;23m;[38;2;12;74;20m;[38;2;20;128;35m=[38;2;18;116;32m=[38;2;11;72;19m;[38;2;17;108;29m+[38;2;31;194;53m$[38;2;31;193;53m$[38;2;22;140;38mx[38;2;3;18;5m [38;2;9;55;15m:[38;2;4;28;8m.[38;2;1;8;2m [38;2;0;1;0m [38;2;0;0;0m [38;2;1;4;1m [38;2;6;37;10m.[38;2;10;66;18m:[38;2;21;135;37m=[38;2;31;194;53m$[38;2;31;194;53m$[38;2;30;188;51m$[38;2;11;69;19m:[38;2;31;193;53m$[38;2;31;194;53m$[38;2;31;194;53m$[38;2;31;194;53m$[38;2;31;193;53m$[38;2;14;88;24m;[38;2;22;141;38mx[38;2;31;194;53m$[38;2;31;194;53m$[38;2;31;194;53m$[38;2;31;194;53m$[38;2;26;162;44mX[38;2;0;1;0m [38;2;0;0;0m [0m
[38;2;0;0;0m [38;2;0;1;0m [38;2;24;150;41mx[38;2;31;194;53m$[38;2;31;194;53m$[38;2;31;194;53m$[38;2;31;194;53m$[38;2;31;194;53m$[38;2;28;179;49mX[38;2;10;65;18m:[38;2;27;172;47mX[38;2;31;194;53m$[38;2;30;190;52m$[38;2;27;172;47mX[38;2;26;162;44mX[38;2;26;166;45mX[38;2;28;175;48mX[38;2;7;42;11m.[38;2;15;96;26m+[38;2;31;194;53m$[38;2;31;194;53m$[38;2;31;194;53m$[38;2;23;147;40mx[38;2;15;95;26m+[38;2;31;194;53m$[38;2;31;194;53m$[38;2;30;190;52m$[38;2;29;183;50mX[38;2;10;66;18m:[38;2;31;194;53m$[38;2;31;194;53m$[38;2;20;127;34m=[38;2;19;118;32m=[38;2;30;189;51m$[38;2;25;155;42mx[38;2;15;98;27m+[38;2;31;194;53m$[38;2;31;194;53m$[38;2;31;194;53m$[38;2;31;194;53m$[38;2;31;194;53m$[38;2;31;193;53m$[38;2;13;84;23m;[38;2;22;143;39mx[38;2;31;194;53m$[38;2;31;194;53m$[38;2;31;194;53m$[38;2;11;71;19m;[38;2;0;0;0m [38;2;0;0;0m [0m
[38;2;0;0;0m [38;2;0;0;0m [38;2;6;41;11m.[38;2;30;191;52m$[38;2;31;194;53m$[38;2;31;194;53m$[38;2;31;194;53m$[38;2;26;162;44mX[38;2;11;69;19m:[38;2;28;175;48mX[38;2;31;194;53m$[38;2;31;194;53m$[38;2;31;194;53m$[38;2;31;194;53m$[38;2;31;194;53m$[38;2;31;194;53m$[38;2;16;102;28m+[38;2;20;128;35m=[38;2;12;73;20m;[38;2;31;193;53m$[38;2;31;194;53m$[38;2;31;194;53m$[38;2;30;191;52m$[38;2;9;56;15m:[38;2;30;189;52m$[38;2;31;194;53m$[38;2;31;194;53m$[38;2;31;193;53m$[38;2;10;65;18m:[38;2;28;179;49mX[38;2;31;194;53m$[38;2;31;194;53m$[38;2;15;96;26m+[38;2;10;65;18m:[38;2;6;41;11m.[38;2;28;177;48mX[38;2;31;194;53m$[38;2;31;194;53m$[38;2;31;194;53m$[38;2;31;194;53m$[38;2;31;194;53m$[38;2;31;194;53m$[38;2;31;193;52m$[38;2;16;102;28m+[38;2;16;99;27m+[38;2;27;170;46mX[38;2;24;150;41mx[38;2;0;2;0m [38;2;0;0;0m [38;2;0;0;0m [0m
[38;2;0;0;0m [38;2;0;0;0m [38;2;0;0;0m [38;2;15;99;27m+[38;2;31;194;53m$[38;2;31;194;53m$[38;2;19;122;33m=[38;2;14;87;23m;[38;2;30;187;51m$[38;2;31;194;53m$[38;2;31;194;53m$[38;2;31;194;53m$[38;2;31;194;53m$[38;2;31;194;53m$[38;2;31;194;53m$[38;2;23;145;39mx[38;2;14;90;24m;[38;2;31;193;53m$[38;2;10;62;17m:[38;2;31;194;53m$[38;2;30;186;51m$[38;2;16;103;28m+[38;2;14;91;25m;[38;2;9;57;15m:[38;2;16;102;28m+[38;2;31;194;53m$[38;2;31;194;53m$[38;2;18;114;31m+[38;2;12;75;20m;[38;2;5;34;9m.[38;2;15;95;26m+[38;2;28;176;48mX[38;2;10;67;18m:[38;2;30;186;51m$[38;2;25;156;42mx[38;2;14;86;23m;[38;2;19;120;33m=[38;2;27;172;47mX[38;2;23;147;40mx[38;2;19;117;32m=[38;2;16;101;27m+[38;2;16;101;27m+[38;2;16;101;27m+[38;2;16;102;28m+[38;2;17;105;28m+[38;2;13;80;22m;[38;2;2;14;4m [38;2;0;0;0m [38;2;0;0;0m [38;2;0;0;0m [0m
[38;2;0;0;0m [38;2;0;0;0m [38;2;0;0;0m [38;2;0;2;0m [38;2;19;120;33m=[38;2;10;65;17m:[38;2;7;45;12m.[38;2;16;100;27m+[38;2;16;103;28m+[38;2;16;103;28m+[38;2;16;100;27m+[38;2;16;102;28m+[38;2;15;97;26m+[38;2;16;102;28m+[38;2;12;77;21m;[38;2;11;72;19m;[38;2;30;191;52m$[38;2;31;194;53m$[38;2;10;62;17m:[38;2;23;145;39mx[38;2;12;75;20m;[38;2;26;165;45mX[38;2;31;193;53m$[38;2;13;84;23m;[38;2;11;69;19m:[38;2;24;149;41mx[38;2;21;134;36m=[38;2;16;99;27m+[38;2;31;193;53m$[38;2;11;69;18m:[38;2;25;162;44mX[38;2;16;100;27m+[38;2;14;89;24m;[38;2;31;194;53m$[38;2;31;194;53m$[38;2;31;194;53m$[38;2;24;152;41mx[38;2;2;13;3m [38;2;12;75;20m;[38;2;27;173;47mX[38;2;31;194;53m$[38;2;31;194;53m$[38;2;31;194;53m$[38;2;31;194;53m$[38;2;30;191;52m$[38;2;9;59;16m:[38;2;0;0;0m [38;2;0;0;0m [38;2;0;0;0m [38;2;0;0;0m [0m
[38;2;0;0;0m [38;2;0;0;0m [38;2;0;0;0m [38;2;0;0;0m [38;2;0;0;0m [38;2;17;111;30m+[38;2;31;194;53m$[38;2;31;194;53m$[38;2;31;194;53m$[38;2;31;194;53m$[38;2;31;194;53m$[38;2;31;194;53m$[38;2;31;194;53m$[38;2;26;163;44mX[38;2;4;29;8m.[38;2;30;186;51m$[38;2;31;194;53m$[38;2;31;194;53m$[38;2;17;111;30m+[38;2;20;125;34m=[38;2;31;193;53m$[38;2;31;194;53m$[38;2;31;194;53m$[38;2;10;64;17m:[38;2;29;183;50mX[38;2;10;63;17m:[38;2;13;83;23m;[38;2;31;193;53m$[38;2;31;194;53m$[38;2;26;164;45mX[38;2;12;79;21m;[38;2;31;194;53m$[38;2;31;194;53m$[38;2;31;194;53m$[38;2;31;194;53m$[38;2;31;194;53m$[38;2;31;194;53m$[38;2;12;75;20m;[38;2;22;141;38mx[38;2;14;87;23m;[38;2;18;116;31m=[38;2;30;188;51m$[38;2;31;194;53m$[38;2;30;190;52m$[38;2;11;69;18m:[38;2;0;0;0m [38;2;0;0;0m [38;2;0;0;0m [38;2;0;0;0m [38;2;0;0;0m [0m
[38;2;0;0;0m [38;2;0;0;0m [38;2;0;0;0m [38;2;0;0;0m [38;2;0;0;0m [38;2;1;4;1m [38;2;19;119;32m=[38;2;31;194;53m$[38;2;31;194;53m$[38;2;31;194;53m$[38;2;31;194;53m$[38;2;31;194;53m$[38;2;26;162;44mX[38;2;11;69;19m:[38;2;9;60;16m:[38;2;29;185;50m$[38;2;31;194;53m$[38;2;31;194;53m$[38;2;31;194;53m$[38;2;31;194;53m$[38;2;31;194;53m$[38;2;31;194;53m$[38;2;30;186;51m$[38;2;10;66;18m:[38;2;31;194;53m$[38;2;31;193;53m$[38;2;31;194;53m$[38;2;31;194;53m$[38;2;31;194;53m$[38;2;31;194;53m$[38;2;12;78;21m;[38;2;10;62;17m:[38;2;26;166;45mX[38;2;31;194;53m$[38;2;31;194;53m$[38;2;31;194;53m$[38;2;31;194;53m$[38;2;16;104;28m+[38;2;24;151;41mx[38;2;31;194;53m$[38;2;26;161;44mx[38;2;14;88;24m;[38;2;17;107;29m+[38;2;9;56;15m:[38;2;0;0;0m [38;2;0;0;0m [38;2;0;0;0m [38;2;0;0;0m [38;2;0;0;0m [38;2;0;0;0m [0m
[38;2;0;0;0m [38;2;0;0;0m [38;2;0;0;0m [38;2;0;0;0m [38;2;0;0;0m [38;2;0;0;0m [38;2;0;0;0m [38;2;12;76;21m;[38;2;29;184;50mX[38;2;31;194;53m$[38;2;31;194;53m$[38;2;25;157;43mx[38;2;11;71;19m;[38;2;30;186;51m$[38;2;20;128;35m=[38;2;19;122;33m=[38;2;31;194;53m$[38;2;31;194;53m$[38;2;31;194;53m$[38;2;31;194;53m$[38;2;31;194;53m$[38;2;31;194;53m$[38;2;21;131;35m=[38;2;19;121;33m=[38;2;31;194;53m$[38;2;31;194;53m$[38;2;31;194;53m$[38;2;31;194;53m$[38;2;31;194;53m$[38;2;31;194;53m$[38;2;25;159;43mx[38;2;13;85;23m;[38;2;16;103;28m+[38;2;15;93;25m+[38;2;28;176;48mX[38;2;31;194;53m$[38;2;31;194;53m$[38;2;17;111;30m+[38;2;23;146;40mx[38;2;31;194;53m$[38;2;31;194;53m$[38;2;24;153;42mx[38;2;4;24;6m.[38;2;0;0;0m [38;2;0;0;0m [38;2;0;0;0m [38;2;0;0;0m [38;2;0;0;0m [38;2;0;0;0m [38;2;0;0;0m [0m
[38;2;0;0;0m [38;2;0;0;0m [38;2;0;0;0m [38;2;0;0;0m [38;2;0;0;0m [38;2;0;0;0m [38;2;0;0;0m [38;2;0;0;0m [38;2;4;25;7m.[38;2;21;135;37m=[38;2;20;129;35m=[38;2;13;84;23m;[38;2;30;189;52m$[38;2;31;194;53m$[38;2;30;190;52m$[38;2;9;60;16m:[38;2;31;193;53m$[38;2;31;194;53m$[38;2;31;194;53m$[38;2;31;194;53m$[38;2;28;177;48mX[38;2;19;123;33m=[38;2;4;28;7m.[38;2;21;135;37m=[38;2;31;194;53m$[38;2;31;194;53m$[38;2;31;194;53m$[38;2;31;194;53m$[38;2;31;194;53m$[38;2;31;194;53m$[38;2;31;193;53m$[38;2;10;63;17m:[38;2;31;194;53m$[38;2;28;179;49mX[38;2;15;95;26m+[38;2;16;102;28m+[38;2;29;183;50mX[38;2;16;101;27m+[38;2;24;154;42mx[38;2;29;182;50mX[38;2;14;88;24m;[38;2;0;3;1m [38;2;0;0;0m [38;2;0;0;0m [38;2;0;0;0m [38;2;0;0;0m [38;2;0;0;0m [38;2;0;0;0m [38;2;0;0;0m [38;2;0;0;0m [0m
[38;2;0;0;0m [38;2;0;0;0m [38;2;0;0;0m [38;2;0;0;0m [38;2;0;0;0m [38;2;0;0;0m [38;2;0;0;0m [38;2;0;0;0m [38;2;0;0;0m [38;2;0;0;0m [38;2;4;23;6m [38;2;23;143;39mx[38;2;31;194;53m$[38;2;31;194;53m$[38;2;31;194;53m$[38;2;16;103;28m+[38;2;23;147;40mx[38;2;23;148;40mx[38;2;15;98;26m+[38;2;15;95;26m+[38;2;18;112;30m+[38;2;24;152;41mx[38;2;11;69;19m:[38;2;15;94;25m+[38;2;20;125;34m=[38;2;31;194;53m$[38;2;31;194;53m$[38;2;31;194;53m$[38;2;31;194;53m$[38;2;31;194;53m$[38;2;31;193;53m$[38;2;10;63;17m:[38;2;31;194;53m$[38;2;31;194;53m$[38;2;31;194;53m$[38;2;27;168;46mX[38;2;13;83;22m;[38;2;7;45;12m.[38;2;13;83;23m;[38;2;2;15;4m [38;2;0;0;0m [38;2;0;0;0m [38;2;0;0;0m [38;2;0;0;0m [38;2;0;0;0m [38;2;0;0;0m [38;2;0;0;0m [38;2;0;0;0m [38;2;0;0;0m [38;2;0;0;0m [0m
[38;2;0;0;0m [38;2;0;0;0m [38;2;0;0;0m [38;2;0;0;0m [38;2;0;0;0m [38;2;0;0;0m [38;2;0;0;0m [38;2;0;0;0m [38;2;0;0;0m [38;2;0;0;0m [38;2;0;0;0m [38;2;0;0;0m [38;2;6;36;10m.[38;2;18;113;31m+[38;2;28;178;49mX[38;2;25;157;43mx[38;2;5;32;9m.[38;2;21;132;36m=[38;2;30;189;52m$[38;2;31;194;53m$[38;2;31;194;53m$[38;2;21;132;36m=[38;2;19;121;33m=[38;2;31;194;53m$[38;2;18;117;32m=[38;2;16;102;28m+[38;2;31;194;53m$[38;2;31;194;53m$[38;2;29;182;50mX[38;2;17;111;30m+[38;2;12;75;20m;[38;2;13;82;22m;[38;2;31;194;53m$[38;2;31;194;53m$[38;2;31;193;53m$[38;2;24;154;42mx[38;2;13;82;22m;[38;2;1;6;1m [38;2;0;0;0m [38;2;0;0;0m [38;2;0;0;0m [38;2;0;0;0m [38;2;0;0;0m [38;2;0;0;0m [38;2;0;0;0m [38;2;0;0;0m [38;2;0;0;0m [38;2;0;0;0m [38;2;0;0;0m [38;2;0;0;0m [0m
[38;2;0;0;0m [38;2;0;0;0m [38;2;0;0;0m [38;2;0;0;0m [38;2;0;0;0m [38;2;0;0;0m [38;2;0;0;0m [38;2;0;0;0m [38;2;0;0;0m [38;2;0;0;0m [38;2;0;0;0m [38;2;0;0;0m [38;2;0;0;0m [38;2;0;0;0m [38;2;0;3;1m [38;2;5;33;9m.[38;2;10;61;17m:[38;2;24;148;40mx[38;2;30;186;51m$[38;2;31;194;53m$[38;2;31;194;53m$[38;2;15;98;27m+[38;2;25;157;43mx[38;2;31;194;53m$[38;2;31;194;53m$[38;2;21;130;35m=[38;2;15;96;26m+[38;2;15;97;26m+[38;2;15;98;27m+[38;2;27;168;46mX[38;2;21;133;36m=[38;2;17;108;29m+[38;2;21;130;35m=[38;2;13;80;22m;[38;2;4;24;7m.[38;2;0;0;0m [38;2;0;0;0m [38;2;0;0;0m [38;2;0;0;0m [38;2;0;0;0m [38;2;0;0;0m [38;2;0;0;0m [38;2;0;0;0m [38;2;0;0;0m [38;2;0;0;0m [38;2;0;0;0m [38;2;0;0;0m [38;2;0;0;0m [38;2;0;0;0m [38;2;0;0;0m [0m
[38;2;0;0;0m [38;2;0;0;0m [38;2;0;0;0m [38;2;0;0;0m [38;2;0;0;0m [38;2;0;0;0m [38;2;0;0;0m [38;2;0;0;0m [38;2;0;0;0m [38;2;0;0;0m [38;2;0;0;0m [38;2;0;0;0m [38;2;0;0;0m [38;2;0;0;0m [38;2;0;0;0m [38;2;0;0;0m [38;2;0;0;0m [38;2;0;0;0m [38;2;0;3;1m [38;2;4;29;8m.[38;2;9;57;15m:[38;2;6;38;10m.[38;2;13;81;22m;[38;2;16;104;28m+[38;2;17;107;29m+[38;2;17;106;29m+[38;2;5;33;9m.[38;2;8;49;13m:[38;2;11;69;19m:[38;2;7;47;13m:[38;2;3;17;5m [38;2;0;0;0m [38;2;0;0;0m [38;2;0;0;0m [38;2;0;0;0m [38;2;0;0;0m [38;2;0;0;0m [38;2;0;0;0m [38;2;0;0;0m [38;2;0;0;0m [38;2;0;0;0m [38;2;0;0;0m [38;2;0;0;0m [38;2;0;0;0m [38;2;0;0;0m [38;2;0;0;0m [38;2;0;0;0m [38;2;0;0;0m [38;2;0;0;0m [38;2;0;0;0m [0m
